{
    "/assets/js/app.js": "/assets/js/app.js?id=f04cb0293c240bd1ff45",
    "/assets/css/style.css": "/assets/css/style.css?id=e0c1e275311d75107542",
    "/assets/js/app.js.map": "/assets/js/app.js.map?id=8222e7cf7da493572448",
    "/assets/css/style.css.map": "/assets/css/style.css.map?id=2faaca53d3e01079923d",
    "/assets/js/vendor.js": "/assets/js/vendor.js?id=ca61c0af40f55038e22d",
    "/assets/js/vendor.js.map": "/assets/js/vendor.js.map?id=985d7ea47c32c3085628",
    "/assets/js/manifest.js": "/assets/js/manifest.js?id=d82724db4398b5e252f2",
    "/assets/js/manifest.js.map": "/assets/js/manifest.js.map?id=fdf36f2cfd3eda73efe5"
}